Chapter 11 Reproducible Data Munging in R | JABSTB: Statistical Design and Analysis of Experiments with R
…
Step 8: Update the gluc table to incorporate these new variables.

gluc <- add_column(gluc, draw, day, .before=T)
gluc

## # A tibble: 224 x 6
##    draw    day ID    treat    V     glucose
##    <chr> <dbl> <chr> <chr>    <chr>   <int>
##  1 early     1 A     placebo  V1        136
##  2 early     1 B     placebo  V1        345
##  3 early     1 C     placebo  V1        190
##  4 early     1 D     placebo  V1        434
##  5 early     1 E     placebo  V1        424
##  6 early     1 F     placebo  V1        170
##  7 early     1 G     placebo  V1        487
##  8 early     1 H     placebo  V1        218
##  9 early     1 I     rosiglit V1        179
## 10 early     1 J     rosiglit V1        260
## # ... with 214 more rows

Step 9: Remove the V variable column from the tribble. First verify that the correct levels for draws and days correspond to the correct levels of V. After that, the V column has no use so it can be removed.

gluc <- select(gluc, -one_of("V"))
gluc

## # A tibble: 224 x 5
##    draw    day ID    treat    glucose
##    <chr> <dbl> <chr> <chr>      <int>
##  1 early     1 A     placebo      136
##  2 early     1 B     placebo      345
##  3 early     1 C     placebo      190
##  4 early     1 D     placebo      434
##  5 early     1 E     placebo      424
##  6 early     1 F     placebo      170
##  7 early     1 G     placebo      487
##  8 early     1 H     placebo      218
##  9 early     1 I     rosiglit     179
## 10 early     1 J     rosiglit     260
## # ... with 214 more rows
…
Now here’s a summary of all the replicate values in tabular form.

gluc %>%
  group_by(day, treat, draw) %>% 
  dplyr::summarise(mean=mean(glucose),
          sd=sd(glucose),
          n=length(glucose))

## # A tibble: 28 x 6
## # Groups:   day, treat [?]
##    day   treat    draw   mean    sd     n
##    <fct> <fct>    <fct> <dbl> <dbl> <int>
##  1 1     placebo  early  300. 138.      8
##  2 1     placebo  late   376. 125.      8
##  3 1     rosiglit early  271  126.      8
##  4 1     rosiglit late   294. 134.      8
##  5 3     placebo  early  339. 146.      8
##  6 3     placebo  late   320. 118.      8
##  7 3     rosiglit early  232  131.      8
##  8 3     rosiglit late   176   90.6     8
##  9 5     placebo  early  352. 125.      8
## 10 5     placebo  late   404. 114.      8
## # ... with 18 more rows

The more you look at the early v late draws, both graphically and in the table above, the more you don’t have a problem treating those as technical or pseudo replicates. Perhaps it was a decision made ahead of time at Jackson? We’ll declare the early and late draws on the same day as not independent. Averaging them leaves will leave us with a tighter estimate of daily blood glucose concentrations, which is nice.

The code below averages the early and late draws to produce a single mean glucose value per replicate per time point.

gluc %>%
  group_by(day, treat, ID) %>% 
  dplyr::summarise(mean=mean(glucose),
          sd=sd(glucose),
          n=length(glucose)
          )

## # A tibble: 112 x 6
## # Groups:   day, treat [?]
##    day   treat    ID     mean     sd     n
##    <fct> <fct>    <fct> <dbl>  <dbl> <int>
##  1 1     placebo  A      203   94.8      2
##  2 1     placebo  B      432. 122.       2
##  3 1     placebo  C      246.  78.5      2
##  4 1     placebo  D      469   49.5      2
##  5 1     placebo  E      455   43.8      2
##  6 1     placebo  F      189   26.9      2
##  7 1     placebo  G      468   26.9      2
##  8 1     placebo  H      246.  38.9      2
##  9 1     rosiglit I      182.   3.54     2
## 10 1     rosiglit J      320.  85.6      2
## # ... with 102 more rows

The ‘mean’ column should be used as the final value for the glucose response variable, in statistical analysis. This is the right call. To leave the technical duplicates would be to flood the data set with undeserved degrees of freedom.

We’ll create a final, working table of the data now. It catalogs how each replicate behaved on each day, and which treatment it received.

glucFinal <- gluc %>%
  group_by(day, treat, ID) %>% 
  dplyr::summarise(glucose=mean(glucose)
            )
glucFinal

## # A tibble: 112 x 4
## # Groups:   day, treat [?]
##    day   treat    ID    glucose
##    <fct> <fct>    <fct>   <dbl>
##  1 1     placebo  A        203 
##  2 1     placebo  B        432.
##  3 1     placebo  C        246.
##  4 1     placebo  D        469 
##  5 1     placebo  E        455 
##  6 1     placebo  F        189 
##  7 1     placebo  G        468 
##  8 1     placebo  H        246.
##  9 1     rosiglit I        182.
## 10 1     rosiglit J        320.
## # ... with 102 more rows
…
