Chapter 33 Reproducible Data Munging Mostly with Tidyverse | JABSTB: Statistical Design and Analysis of Experiments with R
…
We want a column each for mouse ID, the test group, the day of measurement, and the tumor vol measurement values. The first two of these are done.

The pivot_longer function lets us make the latter two.

jw2vol <- jw2vol %>% 
  
  pivot_longer(cols=starts_with("tumor_vol_"),
    names_to="day",
    names_prefix = "tumor_vol_", 
    values_to = "vol", 
    values_drop_na = TRUE
  )
jw2vol

## # A tibble: 143 x 4
##    mouse_ID test_group           day     vol
##       <dbl> <chr>                <chr> <dbl>
##  1       38 Control (no vehicle) 17     27.2
##  2       38 Control (no vehicle) 18     54.8
##  3       38 Control (no vehicle) 19     77.6
##  4       38 Control (no vehicle) 22    104. 
##  5       38 Control (no vehicle) 24     89.8
##  6       38 Control (no vehicle) 26    213. 
##  7       38 Control (no vehicle) 29    306. 
##  8       38 Control (no vehicle) 31    432. 
##  9       38 Control (no vehicle) 33    743. 
## 10       38 Control (no vehicle) 36    721. 
## # … with 133 more rows

33.9 Step 7: Convert other variables to factor

ANOVA are called factorial analyses.

The predictor variable must be a factor. Here, the predictor is day

jw2vol <- jw2vol %>% 
  mutate(
    mouse_ID=as.factor(mouse_ID),
    test_group=as.factor(test_group)
    )
jw2vol

## # A tibble: 143 x 4
##    mouse_ID test_group           day     vol
##    <fct>    <fct>                <chr> <dbl>
##  1 38       Control (no vehicle) 17     27.2
##  2 38       Control (no vehicle) 18     54.8
##  3 38       Control (no vehicle) 19     77.6
##  4 38       Control (no vehicle) 22    104. 
##  5 38       Control (no vehicle) 24     89.8
##  6 38       Control (no vehicle) 26    213. 
##  7 38       Control (no vehicle) 29    306. 
##  8 38       Control (no vehicle) 31    432. 
##  9 38       Control (no vehicle) 33    743. 
## 10 38       Control (no vehicle) 36    721. 
## # … with 133 more rows
…
