Chapter 42 Logistic regression | JABSTB: Statistical Design and Analysis of Experiments with R
…
42.3.1 Interpretation of output

First, let’s try to make sense of this graphically.

Using augment from the broom package is a nifty way to see the predicted values of the fitted model. We’ll plot those out three different ways below to visualize the survival response to stress levels. In each graph, the fitted values of the model are used. They’re just transformed in the latter two.

augment(stork.model)

## # A tibble: 34 x 9
##    death  cort .fitted .se.fit .resid   .hat .sigma .cooksd .std.resid
##    <dbl> <dbl>   <dbl>   <dbl>  <dbl>  <dbl>  <dbl>   <dbl>      <dbl>
##  1     1  26    0.628    0.683  0.925 0.106    1.14  0.0353      0.978
##  2     1  28.2  0.453    0.604  0.992 0.0868   1.14  0.0331      1.04 
##  3     1  29.8  0.325    0.551  1.04  0.0740   1.14  0.0312      1.08 
##  4     1  34.9 -0.0821   0.416  1.21  0.0432   1.13  0.0256      1.24 
##  5     1  34.9 -0.0821   0.416  1.21  0.0432   1.13  0.0256      1.24 
##  6     1  35.9 -0.162    0.399  1.25  0.0395   1.13  0.0251      1.27 
##  7     1  37.4 -0.282    0.381  1.30  0.0355   1.13  0.0253      1.32 
##  8     1  37.6 -0.298    0.379  1.31  0.0352   1.13  0.0254      1.33 
##  9     1  38.3 -0.353    0.375  1.33  0.0341   1.13  0.0260      1.35 
## 10     1  39.9 -0.481    0.375  1.39  0.0333   1.13  0.0288      1.41 
## # ... with 24 more rows
…
