Chapter 48 Making Publication Quality Tables in R | JABSTB: Statistical Design and Analysis of Experiments with R
…
Here is the raw data:

cherry2018raw <- read_csv("datasets/cherry2018JNEN.csv", col_names = FALSE)

## 
## -- Column specification --------------------------------------------------------
## cols(
##   .default = col_character(),
##   X12 = col_logical()
## )
## i Use `spec()` for the full column specifications.

head(cherry2018raw, n = 30)

## # A tibble: 30 x 22
##    X1    X2    X3    X4    X5    X6    X7    X8    X9    X10   X11   X12   X13  
##    <chr> <chr> <chr> <chr> <chr> <chr> <chr> <chr> <chr> <chr> <chr> <lgl> <chr>
##  1 Supp~ <NA>  <NA>  <NA>  <NA>  <NA>  <NA>  <NA>  <NA>  <NA>  <NA>  NA    <NA> 
##  2 <NA>  <NA>  <NA>  <NA>  <NA>  <NA>  <NA>  <NA>  <NA>  <NA>  <NA>  NA    <NA> 
##  3 CONT~ <NA>  <NA>  <NA>  <NA>  <NA>  <NA>  <NA>  <NA>  <NA>  <NA>  NA    CTE  
##  4 Case  Age   Gend~ Path~ Prot~ Hist~ Braak CERA~ TDP-~ a-syn Head~ NA    Case 
##  5 <NA>  <NA>  <NA>  <NA>  <NA>  <NA>  <NA>  <NA>  <NA>  <NA>  <NA>  NA    <NA> 
##  6 Cont~ 83    M     None  <NA>  x     I     0     n/a   n/a   No    NA    CTE 1
##  7 Cont~ 83    F     None  <NA>  x     II    2     n/a   n/a   No    NA    CTE 2
##  8 Cont~ 87    F     None  <NA>  x     II    0     n/a   n/a   No    NA    CTE 3
##  9 Cont~ 88    F     None  <NA>  x     III   2     n/a   n/a   No    NA    CTE 4
## 10 Cont~ 84    F     None  <NA>  x     I     0     n/a   n/a   n/a   NA    CTE 5
## # ... with 20 more rows, and 9 more variables: X14 <chr>, X15 <chr>, X16 <chr>,
## #   X17 <chr>, X18 <chr>, X19 <chr>, X20 <chr>, X21 <chr>, X22 <chr>
…
