Chapter 35 Nested-model nonlinear regression of duplicate measures | JABSTB: Statistical Design and Analysis of Experiments with R
…
tidy(fit1, conf.int=T)

## # A tibble: 3 x 7
##   term  estimate std.error statistic  p.value conf.low conf.high
##   <chr>    <dbl>     <dbl>     <dbl>    <dbl>    <dbl>     <dbl>
## 1 yhi    92.6      2.18         42.5 3.30e-85  88.2      97.0   
## 2 ylo    12.3      0.723        17.0 8.37e-37  10.8      13.7   
## 3 k       0.0420   0.00215      19.5 7.65e-43   0.0377    0.0466

augment(fit1)

## # A tibble: 152 x 4
##     theo   min .fitted .resid
##    <dbl> <int>   <dbl>  <dbl>
##  1  94.2     0    92.6   1.64
##  2  80.8     2    86.1  -5.30
##  3  88.5     4    80.2   8.34
##  4  70.9     6    74.7  -3.80
##  5  63.8     8    69.7  -5.88
##  6  57.1    10    65.1  -7.96
##  7  55.9    12    60.8  -4.92
##  8  65.3    14    56.9   8.38
##  9  56.9    16    53.3   3.57
## 10  53.2    18    50.0   3.17
## # ... with 142 more rows
…
kf
0.0615518
0.0412898
1.4907278
0.1381757

ks
0.0226730
0.0306633
0.7394167
0.4608331

augment(fit2)

## # A tibble: 152 x 4
##     theo   min .fitted .resid
##    <dbl> <int>   <dbl>  <dbl>
##  1  94.2     0    94.9 -0.667
##  2  80.8     2    87.3 -6.55 
##  3  88.5     4    80.6  7.90 
##  4  70.9     6    74.5 -3.63 
##  5  63.8     8    69.1 -5.28 
##  6  57.1    10    64.2 -7.06 
##  7  55.9    12    59.7 -3.84 
##  8  65.3    14    55.7  9.56 
##  9  56.9    16    52.1  4.76 
## 10  53.2    18    48.9  4.33 
## # ... with 142 more rows
…
The red points are the residuals for the one-phase model. The blue points are the residuals for the two phase model.

We don’t see any remarkable differences from their models. Visually, as for the curves, it’s difficult to conclude one model fits better than the other.

#for plotting, create one dataframe with residuals for both models
fits <- bind_cols(augment(fit1), 
                  augment(fit2)[,3:4]) %>% 
  rename(fit1=.fitted,
         resid1=.resid, 
         fit2=.fitted1, 
         resid2=.resid1)
fits

## # A tibble: 152 x 6
##     theo   min  fit1 resid1  fit2 resid2
##    <dbl> <int> <dbl>  <dbl> <dbl>  <dbl>
##  1  94.2     0  92.6   1.64  94.9 -0.667
##  2  80.8     2  86.1  -5.30  87.3 -6.55 
##  3  88.5     4  80.2   8.34  80.6  7.90 
##  4  70.9     6  74.7  -3.80  74.5 -3.63 
##  5  63.8     8  69.7  -5.88  69.1 -5.28 
##  6  57.1    10  65.1  -7.96  64.2 -7.06 
##  7  55.9    12  60.8  -4.92  59.7 -3.84 
##  8  65.3    14  56.9   8.38  55.7  9.56 
##  9  56.9    16  53.3   3.57  52.1  4.76 
## 10  53.2    18  50.0   3.17  48.9  4.33 
## # ... with 142 more rows
…
