Chapter 40 Nonlinear regression of independent replicates | JABSTB: Statistical Design and Analysis of Experiments with R
…
40.2.2 Create one table

There are a couple of ways to combine the data into one table. One way is to convert each table into long format, before binding them together.

smokers1.1 <- gather(smokers1, id, theo, -smoke, -min)

nonsmokers1.1 <- gather(nonsmokers1, id, theo, -smoke, -min)

theodata <- bind_rows(smokers1.1, nonsmokers1.1)

theodata

## # A tibble: 366 x 4
## # Groups:   smoke [2]
##    smoke   min id     theo
##    <chr> <int> <chr> <dbl>
##  1 Y         0 q     191. 
##  2 Y         2 q     181. 
##  3 Y         4 q     168. 
##  4 Y         6 q     150. 
##  5 Y         8 q     134. 
##  6 Y        10 q     130. 
##  7 Y        12 q     130  
##  8 Y        14 q     106. 
##  9 Y        16 q     104. 
## 10 Y        18 q      93.8
## # … with 356 more rows
…
40.4.0.1 Write up

Exposure to cigarette smoke about doubles the rate of theophylline metabolism in rat microsomes. The half-life of the drug is reduced from 29 +/- 0.6 min to 16 +/- 0.9 min (mean +/- SD, 95% confidence interval of the difference is 11.6 to 15.3 min, unpaired t-test, p=3.4e-5).

40.5 Summary figure

The figure above is not quite ready for publication or presentation. The absolute values of theophylline differ from replicate to replicate. The figure also fails to convey, from a glance, that the smoke exposure has any effect.

It is very simple to rescale the data and replot. There are a few conceivable ways to do this, but one is percent of maximum within each replicate.

theodatapm <- group_by(theodata, id) %>% mutate(pmax=100*theo/max(theo))
theodatapm

## # A tibble: 366 x 5
## # Groups:   id [6]
##    smoke   min id     theo  pmax
##    <chr> <int> <chr> <dbl> <dbl>
##  1 Y         0 q     191.  100  
##  2 Y         2 q     181.   94.7
##  3 Y         4 q     168.   87.9
##  4 Y         6 q     150.   78.6
##  5 Y         8 q     134.   70.3
##  6 Y        10 q     130.   68.0
##  7 Y        12 q     130    68.2
##  8 Y        14 q     106.   55.7
##  9 Y        16 q     104.   54.4
## 10 Y        18 q      93.8  49.1
## # … with 356 more rows
…
