Chapter 30 One-way ANOVA Related Measures | JABSTB: Statistical Design and Analysis of Experiments with R
…
# factorize

jw2vol <-jw2vol %>%
  mutate(
    mouse_ID=as.factor(mouse_ID),
    test_group=as.factor(test_group)
    )

jw2vol

## # A tibble: 143 x 4
##    mouse_ID test_group           day     vol
##    <fct>    <fct>                <chr> <dbl>
##  1 38       Control (no vehicle) 17     27.2
##  2 38       Control (no vehicle) 18     54.8
##  3 38       Control (no vehicle) 19     77.6
##  4 38       Control (no vehicle) 22    104. 
##  5 38       Control (no vehicle) 24     89.8
##  6 38       Control (no vehicle) 26    213. 
##  7 38       Control (no vehicle) 29    306. 
##  8 38       Control (no vehicle) 31    432. 
##  9 38       Control (no vehicle) 33    743. 
## 10 38       Control (no vehicle) 36    721. 
## # ... with 133 more rows
…
